{
	"info": {
		"_postman_id": "6ff0b51f-7e37-4f1f-91b4-77b91da63515",
		"name": "Academia Moviles - Tarea #1",
		"schema": "https://schema.getpostman.com/json/collection/v2.1.0/collection.json"
	},
	"item": [
		{
			"name": "LIST PERSONAS",
			"request": {
				"method": "GET",
				"header": [],
				"url": {
					"raw": "http://localhost:3000/api/personas",
					"protocol": "http",
					"host": [
						"localhost"
					],
					"port": "3000",
					"path": [
						"api",
						"personas"
					]
				}
			},
			"response": []
		},
		{
			"name": "LIST PERSONA",
			"request": {
				"method": "GET",
				"header": [],
				"url": {
					"raw": "http://localhost:3000/api/personas/1",
					"protocol": "http",
					"host": [
						"localhost"
					],
					"port": "3000",
					"path": [
						"api",
						"personas",
						"1"
					]
				}
			},
			"response": []
		},
		{
			"name": "CREATE PERSONA",
			"request": {
				"method": "POST",
				"header": [],
				"body": {
					"mode": "raw",
					"raw": "{\r\n    \"nombre\": \"Lizardo\",\r\n    \"edad\": \"29\",\r\n    \"job\": \"Programador\"\r\n}",
					"options": {
						"raw": {
							"language": "json"
						}
					}
				},
				"url": {
					"raw": "http://localhost:3000/api/personas",
					"protocol": "http",
					"host": [
						"localhost"
					],
					"port": "3000",
					"path": [
						"api",
						"personas"
					]
				}
			},
			"response": []
		},
		{
			"name": "UPDATE PERSONA",
			"request": {
				"method": "PATCH",
				"header": [],
				"body": {
					"mode": "raw",
					"raw": "{\r\n    \"_id\": 4,\r\n    \"nombre\": \"Lizardo 2\",\r\n    \"edad\": \"19\",\r\n    \"job\": \"Programador 2\"\r\n}",
					"options": {
						"raw": {
							"language": "json"
						}
					}
				},
				"url": {
					"raw": "http://localhost:3000/api/personas",
					"protocol": "http",
					"host": [
						"localhost"
					],
					"port": "3000",
					"path": [
						"api",
						"personas"
					]
				}
			},
			"response": []
		},
		{
			"name": "DELETE PERSONA",
			"request": {
				"method": "DELETE",
				"header": [],
				"body": {
					"mode": "raw",
					"raw": "{\r\n    \"_id\": \"4\"\r\n}",
					"options": {
						"raw": {
							"language": "json"
						}
					}
				},
				"url": {
					"raw": "http://localhost:3000/api/personas",
					"protocol": "http",
					"host": [
						"localhost"
					],
					"port": "3000",
					"path": [
						"api",
						"personas"
					]
				}
			},
			"response": []
		},
		{
			"name": "LIST PERSONAS V2",
			"request": {
				"method": "GET",
				"header": [],
				"url": {
					"raw": "http://localhost:3000/api/v2/personas",
					"protocol": "http",
					"host": [
						"localhost"
					],
					"port": "3000",
					"path": [
						"api",
						"v2",
						"personas"
					]
				}
			},
			"response": []
		}
	]
}